{
  "type":       "object",
  "required":   [ "cards" ],
  "properties": {
    "cards": {
      "type": "array",
      "items": {
        "type": "object",
        "required": ["card_type", "color", "cost", "expansion_name", "image_url", "level", "name", "power", "printings", "react_id", "soul", "text", "traits", "triggers"],
        "properties": {
          "card_type":      { "type": "string" },
          "color":          { "type": "string" },
          "cost":           { "type": "integer" },
          "expansion_name": { "type": "string" },
          "image_url":      { "type": "string" },
          "level":          { "type": "integer" },
          "name":           { "type": "string" },
          "power":          { "type": "integer" },
          "react_id":       { "type": "string" },
          "soul":           { "type": "integer" },
          "text":           { "type": "string" },
          "printings": {
            "type": "array",
            "items": {
              "type": "object",
              "required": ["number","rarity","react_id"],
              "properties": {
                "number":   { "type": "string" },
                "rarity":   { "type": "string" },
                "react_id": { "type": "string" }
              }
            }
          },
          "traits": {
            "type": "array",
            "items": {
              "type": "object",
              "required": ["react_id", "trait"],
              "properties": {
                "react_id": { "type": "string" },
                "trait":    { "type": "string" }
              }
            }
          },
          "triggers": {
            "type": "array",
            "items": {
              "type": "object",
              "required": ["react_id", "trigger"],
              "properties": {
                "react_id": { "type": "string" },
                "trigger":  { "type": "string" }
              }
            }
          }
        }
      }
    }
  }
}
